…
    ## Adding missing grouping variables: `city_state`

``` r
print(city_results)
```

    ## # A tibble: 50 × 4
    ##    city_state     estimate conf_low conf_high
    ##    <chr>             <dbl>    <dbl>     <dbl>
    ##  1 Richmond, VA      0.263    0.223     0.308
    ##  2 Charlotte, NC     0.300    0.266     0.336
    ##  3 Memphis, TN       0.319    0.296     0.343
    ##  4 Tulsa, OK         0.331    0.293     0.371
    ##  5 Fresno, CA        0.347    0.305     0.391
    ##  6 Milwaukee, wI     0.361    0.333     0.391
    ##  7 Nashville, TN     0.362    0.329     0.398
    ##  8 Durham, NC        0.366    0.310     0.426
    ##  9 Sacramento, CA    0.370    0.321     0.421
    ## 10 San Diego, CA     0.380    0.335     0.426
    ## # ℹ 40 more rows
…
``` r
# Run simulations
sim_results_0 = map(true_values_0, simulate_power) |> 
  bind_rows()
print(sim_results_0)
```

    ## # A tibble: 5,000 × 4
    ##    true_mu p_value reject_null estimate_mu
    ##      <dbl>   <dbl>       <dbl>       <dbl>
    ##  1       0  0.629            0       0.412
    ##  2       0  0.368            0       0.664
    ##  3       0  0.534            0       0.551
    ##  4       0  0.487            0       0.567
    ##  5       0  0.0599           0      -1.65 
    ##  6       0  0.229            0       1.19 
    ##  7       0  0.738            0       0.334
    ##  8       0  0.209            0      -1.19 
    ##  9       0  0.887            0       0.122
    ## 10       0  0.472            0       0.684
    ## # ℹ 4,990 more rows

At $\mu = 0$, the average estimate of $\hat{\mu}$ is -2.6209352^{-4}.
Out of 5000 trials, 254 resulted in rejecting the null hypothesis
$H_0: \mu = 0$, so the power of the test is 0.0508

``` r
sim_results = map_df(true_values, simulate_power) |> 
  bind_rows() 

save(sim_results, file = "data/p3_sim_result.RData")

print(sim_results)
```

    ## # A tibble: 35,000 × 4
    ##    true_mu p_value reject_null estimate_mu
    ##      <dbl>   <dbl>       <dbl>       <dbl>
    ##  1       0   0.549           0       0.520
    ##  2       0   0.188           0       1.11 
    ##  3       0   0.220           0       1.01 
    ##  4       0   0.309           0      -0.835
    ##  5       0   0.365           0      -0.892
    ##  6       0   0.503           0       0.557
    ##  7       0   0.238           0       1.04 
    ##  8       0   0.144           0       1.40 
    ##  9       0   0.180           0       1.15 
    ## 10       0   0.634           0      -0.500
    ## # ℹ 34,990 more rows
…
